"LABEL","PQG USED","PROLOG FILE","ComplexityOfOCL","NumberOfClasses","NumberOfConfiguredAttributes","NumberOfUnConfiguredAttributes","objectModelToPrologQueryTime","prologEvaluationTime","resumptions","entailments","prunings","backtracks","constraints"
"classic_term_linear_unconfigured_condensed","pqg_classic_term","term_linear_condensed","4","2","1","3","0","0","5","1","8","0","3"
"classic_term_linear_unconfigured_condensed","pqg_classic_term","term_linear_condensed","2002000","2000","1000","3000","7","47","5000","1000","8000","0","3000"
"classic_term_linear_unconfigured_condensed","pqg_classic_term","term_linear_condensed","18006000","6000","3000","9000","19","312","15000","3000","24000","0","9000"
"classic_term_linear_unconfigured_condensed","pqg_classic_term","term_linear_condensed","50010000","10000","5000","15000","38","781","25000","5000","40000","0","15000"
"classic_term_linear_unconfigured_condensed","pqg_classic_term","term_linear_condensed","200020000","20000","10000","30000","69","2867","50000","10000","80000","0","30000"
