"LABEL","PQG USED","PROLOG FILE","ComplexityOfOCL","NumberOfClasses","NumberOfConfiguredAttributes","NumberOfUnConfiguredAttributes","objectModelToPrologQueryTime","prologEvaluationTime","resumptions","entailments","prunings","backtracks","constraints"
"naive_term_nonlinear_unconfigured_condensed","pqg_naive_term","term_nonlinear_condensed","4","2","1","3","0","0","1","1","1","0","1"
"naive_term_nonlinear_unconfigured_condensed","pqg_naive_term","term_nonlinear_condensed","13000","2000","1000","3000","10","15","1","1","1000","0","1"
"naive_term_nonlinear_unconfigured_condensed","pqg_naive_term","term_nonlinear_condensed","45000","6000","3000","9000","28","36","1","1","3000","0","1"
"naive_term_nonlinear_unconfigured_condensed","pqg_naive_term","term_nonlinear_condensed","80000","10000","5000","15000","56","62","1","1","5000","0","1"
"naive_term_nonlinear_unconfigured_condensed","pqg_naive_term","term_nonlinear_condensed","170000","20000","10000","30000","103","122","1","1","10000","0","1"
