%!PS-Adobe-3.0
%%DocumentNeededResources: font Helvetica
%%+ font Helvetica-Bold
%%+ font Helvetica-Oblique
%%+ font Helvetica-BoldOblique
%%+ font Symbol
%%DocumentMedia: a4 595 841 0 () ()
%%Title: R Graphics Output
%%Creator: R Software
%%Pages: (atend)
%%Orientation: Landscape
%%BoundingBox: 18 18 577 824
%%EndComments
%%BeginProlog
/bp  { gs sRGB 595.00 0 translate 90 rotate gs } def
% begin .ps.prolog
/gs  { gsave } bind def
/gr  { grestore } bind def
/ep  { showpage gr gr } bind def
/m   { moveto } bind def
/l  { rlineto } bind def
/np  { newpath } bind def
/cp  { closepath } bind def
/f   { fill } bind def
/o   { stroke } bind def
/c   { newpath 0 360 arc } bind def
/r   { 4 2 roll moveto 1 copy 3 -1 roll exch 0 exch rlineto 0 rlineto -1 mul 0 exch rlineto closepath } bind def
/p1  { stroke } bind def
/p2  { gsave bg fill grestore newpath } bind def
/p3  { gsave bg fill grestore stroke } bind def
/p6  { gsave bg eofill grestore newpath } bind def
/p7  { gsave bg eofill grestore stroke } bind def
/t   { 5 -2 roll moveto gsave rotate
       1 index stringwidth pop
       mul neg 0 rmoveto show grestore } bind def
/ta  { 4 -2 roll moveto gsave rotate show } bind def
/tb  { 2 -1 roll 0 rmoveto show } bind def
/cl  { grestore gsave newpath 3 index 3 index moveto 1 index
       4 -1 roll lineto  exch 1 index lineto lineto
       closepath clip newpath } bind def
/rgb { setrgbcolor } bind def
/s   { scalefont setfont } bind def
% end   .ps.prolog
/sRGB { [ /CIEBasedABC
          << /DecodeLMN
               [ { dup 0.03928 le
                        {12.92321 div}
                        {0.055 add 1.055 div 2.4 exp }
                     ifelse
                 } bind dup dup
               ]
             /MatrixLMN [0.412457 0.212673 0.019334
                         0.357576 0.715152 0.119192
                         0.180437 0.072175 0.950301]
             /WhitePoint [0.9505 1.0 1.0890]
           >>
         ] setcolorspace } bind def
/srgb { setcolor } bind def
% begin encoding
/WinAnsiEncoding [
 /.notdef /.notdef /.notdef /.notdef /.notdef /.notdef /.notdef /.notdef
 /.notdef /.notdef /.notdef /.notdef /.notdef /.notdef /.notdef /.notdef
 /.notdef /.notdef /.notdef /.notdef /.notdef /.notdef /.notdef /.notdef
 /.notdef /.notdef /.notdef /.notdef /.notdef /.notdef /.notdef /.notdef
 /space /exclam /quotedbl /numbersign /dollar /percent /ampersand /quoteright
 /parenleft /parenright /asterisk /plus /comma /minus /period /slash
 /zero /one /two /three /four /five /six /seven
 /eight /nine /colon /semicolon /less /equal /greater /question
 /at /A /B /C /D /E /F /G
 /H /I /J /K /L /M /N /O
 /P /Q /R /S /T /U /V /W
 /X /Y /Z /bracketleft /backslash /bracketright /asciicircum /underscore
 /grave /a /b /c /d /e /f /g
 /h /i /j /k /l /m /n /o
 /p /q /r /s /t /u /v /w
 /x /y /z /braceleft /bar /braceright /asciitilde /.notdef
 /Euro /.notdef /quotesinglbase /florin /quotedblbase /ellipsis /dagger /daggerdbl
 /circumflex /perthousand /Scaron /guilsinglleft /OE /.notdef /Zcaron /.notdef
 /.notdef /quoteleft /quoteright /quotedblleft /quotedblright /bullet /endash /emdash
 /tilde /trademark /scaron /guilsinglright /oe /.notdef /zcaron /Ydieresis
 /space /exclamdown /cent /sterling /currency /yen /brokenbar /section
 /dieresis /copyright /ordfeminine /guillemotleft /logicalnot /hyphen /registered /macron
 /degree /plusminus /twosuperior /threesuperior /acute /mu /paragraph /periodcentered
 /cedilla /onesuperior /ordmasculine /guillemotright /onequarter /onehalf /threequarters /questiondown
 /Agrave /Aacute /Acircumflex /Atilde /Adieresis /Aring /AE /Ccedilla
 /Egrave /Eacute /Ecircumflex /Edieresis /Igrave /Iacute /Icircumflex /Idieresis
 /Eth /Ntilde /Ograve /Oacute /Ocircumflex /Otilde /Odieresis /multiply
 /Oslash /Ugrave /Uacute /Ucircumflex /Udieresis /Yacute /Thorn /germandbls
 /agrave /aacute /acircumflex /atilde /adieresis /aring /ae /ccedilla
 /egrave /eacute /ecircumflex /edieresis /igrave /iacute /icircumflex /idieresis
 /eth /ntilde /ograve /oacute /ocircumflex /otilde /odieresis /divide
 /oslash /ugrave /uacute /ucircumflex /udieresis /yacute /thorn /ydieresis
]
 def
% end encoding
%%IncludeResource: font Helvetica
/Helvetica findfont
dup length dict begin
  {1 index /FID ne {def} {pop pop} ifelse} forall
  /Encoding WinAnsiEncoding def
  currentdict
  end
/Font1 exch definefont pop
%%IncludeResource: font Helvetica-Bold
/Helvetica-Bold findfont
dup length dict begin
  {1 index /FID ne {def} {pop pop} ifelse} forall
  /Encoding WinAnsiEncoding def
  currentdict
  end
/Font2 exch definefont pop
%%IncludeResource: font Helvetica-Oblique
/Helvetica-Oblique findfont
dup length dict begin
  {1 index /FID ne {def} {pop pop} ifelse} forall
  /Encoding WinAnsiEncoding def
  currentdict
  end
/Font3 exch definefont pop
%%IncludeResource: font Helvetica-BoldOblique
/Helvetica-BoldOblique findfont
dup length dict begin
  {1 index /FID ne {def} {pop pop} ifelse} forall
  /Encoding WinAnsiEncoding def
  currentdict
  end
/Font4 exch definefont pop
%%IncludeResource: font Symbol
/Symbol findfont
dup length dict begin
  {1 index /FID ne {def} {pop pop} ifelse} forall
  currentdict
  end
/Font5 exch definefont pop
%%EndProlog
%%Page: 1 1
bp
18.00 18.00 823.89 577.28 cl
48.24 48.24 793.65 518.24 cl
/Font1 findfont 12 s
0 0 0 srgb
331.08 461.26 (|) .5 0 t
0.75 setlinewidth
[] 0 setdash
1 setlinecap
1 setlinejoin
10.00 setmiterlimit
np
133.36 283.24 m
158.17 181.32 l
79.09 0 l
158.17 -181.32 l
o
np
349.05 101.91 m
143.79 181.33 l
71.90 0 l
143.79 -181.33 l
o
154.92 378.30 (Ref) 0 ta
-0.360 (erence) tb
-0.180 (.T) tb
-1.440 (ype=cntn) tb gr
420.94 197.00 (Model.Representation=assc) .5 0 t
398.85 363.33 (Ref) 0 ta
-0.360 (erence) tb
-0.180 (.T) tb
-1.440 (ype=id) tb gr
636.63 182.02 (Model.Representation=list) .5 0 t
/bg { 1 1 1 srgb } def
np
 367.73 464.56 m
-0.20 2.56 l
-0.60 2.52 l
-0.99 2.47 l
-1.38 2.39 l
-1.74 2.28 l
-2.09 2.15 l
-2.41 1.99 l
-2.72 1.80 l
-2.98 1.61 l
-3.22 1.40 l
-3.41 1.16 l
-3.59 0.91 l
-3.70 0.67 l
-3.79 0.40 l
-3.83 0.13 l
-3.84 -0.13 l
-3.79 -0.40 l
-3.70 -0.67 l
-3.58 -0.91 l
-3.42 -1.16 l
-3.22 -1.40 l
-2.98 -1.61 l
-2.72 -1.80 l
-2.41 -1.99 l
-2.09 -2.15 l
-1.74 -2.28 l
-1.38 -2.39 l
-0.99 -2.47 l
-0.60 -2.52 l
-0.20 -2.56 l
0.20 -2.55 l
0.60 -2.53 l
0.99 -2.47 l
1.38 -2.39 l
1.74 -2.28 l
2.09 -2.14 l
2.41 -1.99 l
2.72 -1.81 l
2.98 -1.61 l
3.22 -1.39 l
3.42 -1.16 l
3.58 -0.92 l
3.70 -0.66 l
3.79 -0.40 l
3.84 -0.13 l
3.83 0.13 l
3.79 0.40 l
3.70 0.66 l
3.59 0.92 l
3.41 1.16 l
3.22 1.39 l
2.98 1.61 l
2.72 1.81 l
2.41 1.99 l
2.09 2.14 l
1.74 2.28 l
1.38 2.39 l
0.99 2.47 l
0.60 2.53 l
0.20 2.55 l
cp p3
np
 565.44 283.24 m
-0.20 2.55 l
-0.60 2.53 l
-0.99 2.47 l
-1.37 2.39 l
-1.75 2.28 l
-2.09 2.14 l
-2.41 1.99 l
-2.71 1.81 l
-2.99 1.61 l
-3.21 1.39 l
-3.42 1.16 l
-3.58 0.92 l
-3.71 0.66 l
-3.79 0.40 l
-3.83 0.14 l
-3.83 -0.14 l
-3.79 -0.40 l
-3.71 -0.66 l
-3.58 -0.92 l
-3.42 -1.16 l
-3.22 -1.39 l
-2.98 -1.61 l
-2.71 -1.81 l
-2.42 -1.99 l
-2.09 -2.14 l
-1.74 -2.28 l
-1.37 -2.39 l
-1.00 -2.47 l
-0.60 -2.53 l
-0.20 -2.55 l
0.20 -2.56 l
0.60 -2.52 l
1.00 -2.47 l
1.37 -2.39 l
1.74 -2.28 l
2.09 -2.15 l
2.42 -1.98 l
2.71 -1.81 l
2.98 -1.61 l
3.22 -1.40 l
3.42 -1.16 l
3.58 -0.91 l
3.71 -0.67 l
3.79 -0.40 l
3.83 -0.13 l
3.83 0.13 l
3.79 0.40 l
3.71 0.67 l
3.58 0.91 l
3.42 1.16 l
3.21 1.40 l
2.99 1.61 l
2.71 1.81 l
2.41 1.98 l
2.09 2.15 l
1.75 2.28 l
1.37 2.39 l
0.99 2.47 l
0.60 2.52 l
0.20 2.56 l
cp p3
np
 159.28 300.52 m
0 -34.56 l
-51.84 0 l
0 34.56 l
cp p3
np
 374.97 119.19 m
0 -34.56 l
-51.84 0 l
0 34.56 l
cp p3
np
 734.45 119.19 m
0 -34.56 l
-51.84 0 l
0 34.56 l
cp p3
331.08 474.66 (338.5) .5 0 t
331.08 460.26 (n=544) .5 0 t
133.36 293.33 (74.92) .5 0 t
133.36 278.93 (n=272) .5 0 t
528.79 293.33 (602) .5 0 t
528.79 278.93 (n=272) .5 0 t
349.05 112.00 (81.84) .5 0 t
349.05 97.60 (n=136) .5 0 t
708.53 112.00 (1122) .5 0 t
708.53 97.60 (n=136) .5 0 t
18.00 18.00 823.89 577.28 cl
/Font2 findfont 14 s
0 0 0 srgb
325.25 542.73 (Regression T) 0 ta
-1.120 (ree f) tb
-0.280 (or Milea) tb
-0.140 (g) tb
0.140 (e ) tb gr
ep
%%Trailer
%%Pages: 1
%%EOF
