"PQG USED","PROLOG FILE","ComplexityOfOCL","NumberOfClasses","NumberOfConfiguredAttributes","NumberOfUnConfiguredAttributes","objectModelToPrologQueryTime","prologEvaluationTime","resumptions","entailments","prunings","backtracks","constraints"
"pqg_naive_list","list_linear_normal","0","2","1","3","0","0","4","0","6","0","2"
"pqg_naive_list","list_linear_normal","0","2000","1000","3000","3","11","4000","0","6000","0","2000"
"pqg_naive_list","list_linear_normal","0","6000","3000","9000","10","36","12000","0","18000","0","6000"
"pqg_naive_list","list_linear_normal","0","10000","5000","15000","16","53","20000","0","30000","0","10000"
"pqg_naive_list","list_linear_normal","0","20000","10000","30000","32","104","40000","0","60000","0","20000"
