"PQG USED","PROLOG FILE","ComplexityOfOCL","NumberOfClasses","NumberOfConfiguredAttributes","NumberOfUnConfiguredAttributes","objectModelToPrologQueryTime","prologEvaluationTime","resumptions","entailments","prunings","backtracks","constraints"
"pqg_classic_list","list_nonlinear_condensed","0","2","1","3","0","0","3","2","1","0","2"
"pqg_classic_list","list_nonlinear_condensed","0","2000","1000","3000","2","59","2001","1001","1000","0","1001"
"pqg_classic_list","list_nonlinear_condensed","0","6000","3000","9000","7","514","6001","3001","3000","0","3001"
"pqg_classic_list","list_nonlinear_condensed","0","10000","5000","15000","12","1372","10001","5001","5000","0","5001"
"pqg_classic_list","list_nonlinear_condensed","0","20000","10000","30000","22","5354","20001","10001","10000","0","10001"
