digraph G {
18005115 [shape=box,label="iterator(forAll,null)"];
18110149 [shape=box,label="allInstances(Set(ElectronicConnection))"];
18005115 -> 18110149;
18110149 [shape=box,label="allInstances(Set(ElectronicConnection))"];
5022763 [shape=box,label="constant(0,-1,OclType)"];
18110149 -> 5022763;
5022763 [shape=box,label="constant(0,-1,OclType)"];
28184189 [shape=box,label="and(Boolean,Boolean)"];
18005115 -> 28184189;
28184189 [shape=box,label="and(Boolean,Boolean)"];
3748199 [shape=box,label=">(Boolean)"];
28184189 -> 3748199;
3748199 [shape=box,label=">(Boolean)"];
14321474 [shape=box,label="attribute(ebIndex,Integer)"];
3748199 -> 14321474;
14321474 [shape=box,label="attribute(ebIndex,Integer)"];
15087600 [shape=box,label="variable(0,-1,ElectronicConnection)"];
14321474 -> 15087600;
15087600 [shape=box,label="variable(0,-1,ElectronicConnection)"];
6454108 [shape=box,label="constant(0,0,Integer)"];
3748199 -> 6454108;
6454108 [shape=box,label="constant(0,0,Integer)"];
26268982 [shape=box,label="=>(Boolean)"];
28184189 -> 26268982;
26268982 [shape=box,label="=>(Boolean)"];
27127259 [shape=box,label="attribute(ebIndex,Integer)"];
26268982 -> 27127259;
27127259 [shape=box,label="attribute(ebIndex,Integer)"];
23775954 [shape=box,label="variable(0,-1,ElectronicConnection)"];
27127259 -> 23775954;
23775954 [shape=box,label="variable(0,-1,ElectronicConnection)"];
2734153 [shape=box,label="size(Integer)"];
26268982 -> 2734153;
2734153 [shape=box,label="size(Integer)"];
16900225 [shape=box,label="attribute(eBoards,ElecBoard)"];
2734153 -> 16900225;
16900225 [shape=box,label="attribute(eBoards,ElecBoard)"];
3819554 [shape=box,label="role(sem,SEM)"];
16900225 -> 3819554;
3819554 [shape=box,label="role(sem,SEM)"];
5619631 [shape=box,label="variable(0,-1,ElectronicConnection)"];
3819554 -> 5619631;
5619631 [shape=box,label="variable(0,-1,ElectronicConnection)"];
}
