"LABEL","PQG USED","PROLOG FILE","ComplexityOfOCL","NumberOfClasses","NumberOfConfiguredAttributes","NumberOfUnConfiguredAttributes","objectModelToPrologQueryTime","prologEvaluationTime","resumptions","entailments","prunings","backtracks","constraints"
"classic_term_nonlinear_configured_condensed","pqg_classic_term","term_nonlinear_condensed","0","2","4","0","0","0","1","1","0","0","1"
"classic_term_nonlinear_configured_condensed","pqg_classic_term","term_nonlinear_condensed","0","2000","4000","0","2","62","1","1","0","0","1"
"classic_term_nonlinear_configured_condensed","pqg_classic_term","term_nonlinear_condensed","0","6000","12000","0","8","497","1","1","0","0","1"
"classic_term_nonlinear_configured_condensed","pqg_classic_term","term_nonlinear_condensed","0","10000","20000","0","9","1364","1","1","0","0","1"
"classic_term_nonlinear_configured_condensed","pqg_classic_term","term_nonlinear_condensed","0","20000","40000","0","21","5318","1","1","0","0","1"
