"LABEL","PQG USED","PROLOG FILE","ComplexityOfOCL","NumberOfClasses","NumberOfConfiguredAttributes","NumberOfUnConfiguredAttributes","objectModelToPrologQueryTime","prologEvaluationTime","resumptions","entailments","prunings","backtracks","constraints"
"classic_assoc_nonlinear_configured_normal_withconstraints","pqg_assoc","assoc_nonlinear_normal_withconstraints","0","2","4","0","1","0","0","0","0","0","0"
"classic_assoc_nonlinear_configured_normal_withconstraints","pqg_assoc","assoc_nonlinear_normal_withconstraints","0","2000","4000","0","26","18","0","0","0","0","0"
"classic_assoc_nonlinear_configured_normal_withconstraints","pqg_assoc","assoc_nonlinear_normal_withconstraints","0","6000","12000","0","68","57","0","0","0","0","0"
"classic_assoc_nonlinear_configured_normal_withconstraints","pqg_assoc","assoc_nonlinear_normal_withconstraints","0","10000","20000","0","15","93","0","0","0","0","0"
"classic_assoc_nonlinear_configured_normal_withconstraints","pqg_assoc","assoc_nonlinear_normal_withconstraints","0","20000","40000","0","34","179","0","0","0","0","0"
