"LABEL","PQG USED","PROLOG FILE","ComplexityOfOCL","NumberOfClasses","NumberOfConfiguredAttributes","NumberOfUnConfiguredAttributes","objectModelToPrologQueryTime","prologEvaluationTime","resumptions","entailments","prunings","backtracks","constraints"
"classic_term_linear_configured_condensed","pqg_classic_term","term_linear_condensed","0","2","4","0","0","0","3","3","1","0","3"
"classic_term_linear_configured_condensed","pqg_classic_term","term_linear_condensed","0","2000","4000","0","2","47","3000","3000","1000","0","3000"
"classic_term_linear_configured_condensed","pqg_classic_term","term_linear_condensed","0","6000","12000","0","9","297","9000","9000","3000","0","9000"
"classic_term_linear_configured_condensed","pqg_classic_term","term_linear_condensed","0","10000","20000","0","14","763","15000","15000","5000","0","15000"
"classic_term_linear_configured_condensed","pqg_classic_term","term_linear_condensed","0","20000","40000","0","21","2812","30000","30000","10000","0","30000"
