"LABEL","PQG USED","PROLOG FILE","ComplexityOfOCL","NumberOfClasses","NumberOfConfiguredAttributes","NumberOfUnConfiguredAttributes","objectModelToPrologQueryTime","prologEvaluationTime","resumptions","entailments","prunings","backtracks","constraints"
"classic_assoc_linear_configured_normal","pqg_assoc","assoc_linear_normal","0","2","4","0","0","0","3","3","1","0","3"
"classic_assoc_linear_configured_normal","pqg_assoc","assoc_linear_normal","0","2000","4000","0","3","28","3000","3000","1000","0","3000"
"classic_assoc_linear_configured_normal","pqg_assoc","assoc_linear_normal","0","6000","12000","0","9","80","9000","9000","3000","0","9000"
"classic_assoc_linear_configured_normal","pqg_assoc","assoc_linear_normal","0","10000","20000","0","15","132","15000","15000","5000","0","15000"
"classic_assoc_linear_configured_normal","pqg_assoc","assoc_linear_normal","0","20000","40000","0","30","271","30000","30000","10000","0","30000"
