"LABEL","PQG USED","PROLOG FILE","ComplexityOfOCL","NumberOfClasses","NumberOfConfiguredAttributes","NumberOfUnConfiguredAttributes","objectModelToPrologQueryTime","prologEvaluationTime","resumptions","entailments","prunings","backtracks","constraints"
"naive_list_nonlinear_configured_condensed","pqg_naive_list","list_nonlinear_condensed","0","2","4","0","0","0","1","1","0","0","1"
"naive_list_nonlinear_configured_condensed","pqg_naive_list","list_nonlinear_condensed","0","2000","4000","0","3","15","1","1","0","0","1"
"naive_list_nonlinear_configured_condensed","pqg_naive_list","list_nonlinear_condensed","0","6000","12000","0","10","36","1","1","0","0","1"
"naive_list_nonlinear_configured_condensed","pqg_naive_list","list_nonlinear_condensed","0","10000","20000","0","15","65","1","1","0","0","1"
"naive_list_nonlinear_configured_condensed","pqg_naive_list","list_nonlinear_condensed","0","20000","40000","0","26","130","1","1","0","0","1"
