"LABEL","PQG USED","PROLOG FILE","ComplexityOfOCL","NumberOfClasses","NumberOfConfiguredAttributes","NumberOfUnConfiguredAttributes","objectModelToPrologQueryTime","prologEvaluationTime","resumptions","entailments","prunings","backtracks","constraints"
"naive_term_nonlinear_configured_normal","pqg_naive_term","term_nonlinear_normal","0","2","4","0","0","0","1","1","0","0","1"
"naive_term_nonlinear_configured_normal","pqg_naive_term","term_nonlinear_normal","0","2000","4000","0","4","15","1","1","0","0","1"
"naive_term_nonlinear_configured_normal","pqg_naive_term","term_nonlinear_normal","0","6000","12000","0","10","31","1","1","0","0","1"
"naive_term_nonlinear_configured_normal","pqg_naive_term","term_nonlinear_normal","0","10000","20000","0","16","62","1","1","0","0","1"
"naive_term_nonlinear_configured_normal","pqg_naive_term","term_nonlinear_normal","0","20000","40000","0","33","112","1","1","0","0","1"
