"LABEL","PQG USED","PROLOG FILE","ComplexityOfOCL","NumberOfClasses","NumberOfConfiguredAttributes","NumberOfUnConfiguredAttributes","objectModelToPrologQueryTime","prologEvaluationTime","resumptions","entailments","prunings","backtracks","constraints"
"naive_term_linear_configured_condensed","pqg_naive_term","term_linear_condensed","0","2","4","0","0","0","3","3","1","0","3"
"naive_term_linear_configured_condensed","pqg_naive_term","term_linear_condensed","0","2000","4000","0","3","15","3000","3000","1000","0","3000"
"naive_term_linear_configured_condensed","pqg_naive_term","term_linear_condensed","0","6000","12000","0","10","62","9000","9000","3000","0","9000"
"naive_term_linear_configured_condensed","pqg_naive_term","term_linear_condensed","0","10000","20000","0","14","101","15000","15000","5000","0","15000"
"naive_term_linear_configured_condensed","pqg_naive_term","term_linear_condensed","0","20000","40000","0","35","203","30000","30000","10000","0","30000"
