%!PS-Adobe-3.0 EPSF-3.0
%%DocumentNeededResources: font Helvetica
%%+ font Helvetica-Bold
%%+ font Helvetica-Oblique
%%+ font Helvetica-BoldOblique
%%+ font Symbol
%%Title: R Graphics Output
%%Creator: R Software
%%Pages: (atend)
%%BoundingBox: 18 18 577 824
%%EndComments
%%BeginProlog
/bp  { gs gs } def
% begin .ps.prolog
/gs  { gsave } bind def
/gr  { grestore } bind def
/ep  { showpage gr gr } bind def
/m   { moveto } bind def
/l  { rlineto } bind def
/np  { newpath } bind def
/cp  { closepath } bind def
/f   { fill } bind def
/o   { stroke } bind def
/c   { newpath 0 360 arc } bind def
/r   { 4 2 roll moveto 1 copy 3 -1 roll exch 0 exch rlineto 0 rlineto -1 mul 0 exch rlineto closepath } bind def
/p1  { stroke } bind def
/p2  { gsave bg fill grestore newpath } bind def
/p3  { gsave bg fill grestore stroke } bind def
/p6  { gsave bg eofill grestore newpath } bind def
/p7  { gsave bg eofill grestore stroke } bind def
/t   { 5 -2 roll moveto gsave rotate
       1 index stringwidth pop
       mul neg 0 rmoveto show grestore } bind def
/ta  { 4 -2 roll moveto gsave rotate show } bind def
/tb  { 2 -1 roll 0 rmoveto show } bind def
/cl  { grestore gsave newpath 3 index 3 index moveto 1 index
       4 -1 roll lineto  exch 1 index lineto lineto
       closepath clip newpath } bind def
/rgb { setrgbcolor } bind def
/s   { scalefont setfont } bind def
% end   .ps.prolog
%%IncludeResource: font Helvetica
/Helvetica findfont
dup length dict begin
  {1 index /FID ne {def} {pop pop} ifelse} forall
  /Encoding ISOLatin1Encoding def
  currentdict
  end
/Font1 exch definefont pop
%%IncludeResource: font Helvetica-Bold
/Helvetica-Bold findfont
dup length dict begin
  {1 index /FID ne {def} {pop pop} ifelse} forall
  /Encoding ISOLatin1Encoding def
  currentdict
  end
/Font2 exch definefont pop
%%IncludeResource: font Helvetica-Oblique
/Helvetica-Oblique findfont
dup length dict begin
  {1 index /FID ne {def} {pop pop} ifelse} forall
  /Encoding ISOLatin1Encoding def
  currentdict
  end
/Font3 exch definefont pop
%%IncludeResource: font Helvetica-BoldOblique
/Helvetica-BoldOblique findfont
dup length dict begin
  {1 index /FID ne {def} {pop pop} ifelse} forall
  /Encoding ISOLatin1Encoding def
  currentdict
  end
/Font4 exch definefont pop
%%IncludeResource: font Symbol
/Symbol findfont
dup length dict begin
  {1 index /FID ne {def} {pop pop} ifelse} forall
  currentdict
  end
/Font5 exch definefont pop
%%EndProlog
%%Page: 1 1
bp
77.04 91.44 547.04 764.85 cl
0 setgray
0.75 setlinewidth
[] 0 setdash
1 setlinecap
1 setlinejoin
10.00 setmiterlimit
94.45 120.70 2.70 c p1
94.45 116.38 2.70 c p1
94.45 118.54 2.70 c p1
94.45 118.54 2.70 c p1
94.45 118.54 2.70 c p1
137.97 178.95 2.70 c p1
137.97 181.11 2.70 c p1
137.97 178.95 2.70 c p1
137.97 181.11 2.70 c p1
137.97 176.79 2.70 c p1
312.04 427.07 2.70 c p1
312.04 422.75 2.70 c p1
312.04 427.07 2.70 c p1
312.04 429.22 2.70 c p1
312.04 424.91 2.70 c p1
529.63 739.91 2.70 c p1
529.63 729.12 2.70 c p1
529.63 737.75 2.70 c p1
529.63 729.12 2.70 c p1
529.63 733.44 2.70 c p1
94.88 118.54 2.70 c p1
94.88 116.38 2.70 c p1
94.88 116.38 2.70 c p1
94.88 116.38 2.70 c p1
94.88 116.38 2.70 c p1
98.80 122.85 2.70 c p1
98.80 127.17 2.70 c p1
98.80 122.85 2.70 c p1
98.80 122.85 2.70 c p1
98.80 120.70 2.70 c p1
18.00 18.00 577.28 823.89 cl
0 setgray
0.75 setlinewidth
[] 0 setdash
1 setlinecap
1 setlinejoin
10.00 setmiterlimit
np
94.45 91.44 m
435.18 0 l
o
np
94.45 91.44 m
0 -7.20 l
o
np
181.48 91.44 m
0 -7.20 l
o
np
268.52 91.44 m
0 -7.20 l
o
np
355.56 91.44 m
0 -7.20 l
o
np
442.59 91.44 m
0 -7.20 l
o
np
529.63 91.44 m
0 -7.20 l
o
/Font1 findfont 12 s
94.45 65.52 (0) .5 0 t
181.48 65.52 (10000) .5 0 t
268.52 65.52 (20000) .5 0 t
355.56 65.52 (30000) .5 0 t
442.59 65.52 (40000) .5 0 t
529.63 65.52 (50000) .5 0 t
np
77.04 116.38 m
0 647.26 l
o
np
77.04 116.38 m
-7.20 0 l
o
np
77.04 224.26 m
-7.20 0 l
o
np
77.04 332.13 m
-7.20 0 l
o
np
77.04 440.01 m
-7.20 0 l
o
np
77.04 547.89 m
-7.20 0 l
o
np
77.04 655.76 m
-7.20 0 l
o
np
77.04 763.64 m
-7.20 0 l
o
59.76 116.38 (0) .5 90 t
59.76 224.26 (50) .5 90 t
59.76 332.13 (100) .5 90 t
59.76 440.01 (150) .5 90 t
59.76 547.89 (200) .5 90 t
59.76 655.76 (250) .5 90 t
59.76 763.64 (300) .5 90 t
np
77.04 91.44 m
470.00 0 l
0 673.41 l
-470.00 0 l
0 -673.41 l
o
18.00 18.00 577.28 823.89 cl
/Font1 findfont 12 s
0 setgray
231.01 36.72 (Comple) 0 ta
-0.360 (xity of OCL e) tb
-0.360 (xpression) tb gr
30.96 352.78 (Prolog e) 90 ta
-0.360 (v) tb
-0.300 (aluation time in ms) tb gr
ep
%%Trailer
%%Pages: 1
%%EOF
